{
  "project_list": [
    {
      "project_name": "Demo Project",
      "description": "This is a demo project",
      "id": 1,
      "pages": [
        {
          "label": "Page 1",
          "order": 0,
          "questions": [
            {
              "heading": {
                "title": "Text Box Question",
                "description": "Text Box Description"
              },
              "order": 0,
              "question_type": "TEXT_INPUT"
            },
            {
              "heading": {
                "title": "Single Choice Question",
                "description": "Single Choice Description"
              },
              "order": 1,
              "question_type": "SELECTOR",
              "answers": {
                "choices": [
                  {
                    "text": "Answer 1"
                  },
                  {
                    "text": "Answer 2"
                  }
                ],
                "other": {
                  "text": "Other",
                  "num_chars": 100,
                  "num_lines": 3
                }
              }
            },
            {
              "heading": {
                "title": "Text Box Question 2",
                "description": "Text Box Description"
              },
              "order": 2,
              "question_type": "TEXT_INPUT"
            },
            {
              "heading": {
                "title": "Text Box Question 3",
                "description": "Text Box Description"
              },
              "order": 3,
              "question_type": "TEXT_INPUT"
            }
          ]
        }
      ]
    }
  ]
}
